{
  "name": "EBS Test API",
  "version": "0.0.1",
  "description": "EBS Test API",
  "title": "EBS Test API",
  "url": "http://127.0.0.1:8000",
  "sampleUrl": false,
  "defaultVersion": "0.0.0",
  "apidoc": "0.3.0",
  "generator": {
    "name": "apidoc",
    "time": "2020-05-15T11:44:32.802Z",
    "url": "http://apidocjs.com",
    "version": "0.20.0"
  }
}
